{
    "1": "https://quey.org/@mercurymusing",
    "4": "https://straylight.expectnomore.net/@pikestaff",
    "6": "https://mstdn.io/@alexl",
    "7": "https://toot.site/@deathy",
    "10": "https://cybre.space/@schokopflaster",
    "25": "https://social.gattai.net/@revkellyn",
    "27": "https://mastodon.at/@JubalBarca",
    "35": "https://mastodon.technology/@cj",
    "36": "https://freedom.horse/@nova",
    "37": "https://donphan.social/@dogtypetrainer",
    "38": "https://radical.town/@juicebat",
    "39": "https://radical.town/@deidara",
    "44": "https://mastodon.art/@sajan",
    "50": "https://mastodon.lubar.me/@ben",
    "54": "https://octodon.social/@WeeMadHamish",
    "59": "https://awoo.space/@Rosemary",
    "63": "https://witches.live/@mythismathic",
    "77": "https://mastodon.social/@emelie",
    "78": "https://witches.live/@Red",
    "94": "https://mastodon.lertsenem.com/@lertsenem",
    "99": "https://playvicious.social/@paralithode",
    "104": "https://witches.live/@cloverdile",
    "115": "https://tabletop.social/@azne",
    "129": "https://freedom.horse/@tibius",
    "132": "https://mastodon.gamedev.place/@banditjoj",
    "133": "https://witches.live/@Katarzyna",
    "136": "https://queer.party/@wolfie",
    "137": "https://queer.town/@purin",
    "143": "https://knzk.me/@tan",
    "144": "https://toot.site/@pikachu",
    "147": "https://queer.town/@blxckberrying",
    "150": "https://mastodon.social/@trwnh",
    "151": "https://mastodon.gamedev.place/@funkeh",
    "152": "https://berries.space/@mario",
    "156": "https://awoo.space/@Felthry",
    "158": "https://manowar.social/@zatnosk",
    "163": "https://playvicious.social/@jalcine",
    "175": "https://chaos.social/@Sueszkartoffel",
    "179": "https://queer.party/@lindow",
    "183": "https://queer.party/@byttyrs",
    "185": "https://artalley.porn/@inanna",
    "195": "https://mastodon.art/@EmergencyBattle",
    "197": "https://donphan.social/@kuroba",
    "209": "https://berries.space/@snubbull",
    "218": "https://mastodon.technology/@trickster",
    "228": "https://donphan.social/@chip",
    "231": "https://mastodon.social/@franciecashman",
    "233": "https://queer.party/@AKAHayling",
    "245": "https://tabletop.social/@daisy_todd",
    "249": "https://mastodon.social/@SixFeetUnder18",
    "253": "https://mastodon.social/@Waces",
    "255": "https://berries.space/@dedenne",
    "258": "https://sunbeam.city/@solarpunkagorism",
    "262": "https://sunbeam.city/@GreenandBlack",
    "280": "https://lgbtq.cool/@jaythegay729",
    "281": "https://godforsaken.website/@hanny",
    "286": "https://radical.town/@format",
    "292": "https://mastodon.social/@luthwyhn",
    "301": "https://radical.town/@leora",
    "312": "https://boopsnoot.gq/@ibrokemypie",
    "327": "https://witches.live/@toilet",
    "330": "https://nulled.red/@amic",
    "337": "https://donphan.social/@night",
    "353": "https://mastodon.social/@tastytulip",
    "376": "https://radical.town/@radicalrobit",
    "387": "https://lgbtq.cool/@averagepossum",
    "404": "https://framapiaf.org/@valeryan24",
    "418": "https://transfurrmation.town/users/Frinkeldoodle",
    "428": "https://fedi.lynnesbian.space/@lynnesbian",
    "432": "https://mastodon.social/@garfiald",
    "441": "https://knzk.me/@citrustwee",
    "445": "https://mastodon.art/@Ellteo",
    "446": "https://donphan.social/@Siphonay",
    "447": "https://berries.space/@4kidssanji",
    "448": "https://fandom.ink/@DreamyDoodles",
    "450": "https://mastodon.gamedev.place/@warry",
    "468": "https://donphan.social/@nikkie2571",
    "470": "https://deadinsi.de/@cute",
    "471": "https://glaceon.social/@monorail",
    "474": "https://nutt.church/@woomy",
    "479": "https://vulpine.club/@backwardsflow",
    "531": "https://donphan.social/@audreyaudino",
    "541": "https://berries.space/@sandwich",
    "547": "https://donphan.social/@whimsicott",
    "556": "https://donphan.social/@peachie",
    "560": "https://nutt.church/@nuttgodd",
    "572": "https://snouts.online/@queerzel",
    "585": "https://donphan.social/@littledeerling",
    "586": "https://queer.garden/@moth",
    "587": "https://mastodon.technology/@xmakina",
    "592": "https://mstdn.io/@toro",
    "655": "https://toot.cafe/@Rovine",
    "695": "https://mastodon.art/@g",
    "700": "https://elekk.xyz/@rennykrin",
    "702": "https://plush.city/@deejvalen",
    "723": "https://cybre.space/@weirdokay",
    "725": "https://donphan.social/@DropDeadDanger",
    "726": "https://donphan.social/@torracat",
    "728": "https://mastodon.sleeping.town/@gmsh",
    "730": "https://jorts.horse/@red",
    "745": "https://chitter.xyz/@slice",
    "768": "https://donphan.social/@teamskullboss",
    "771": "https://donphan.social/@maverynthia",
    "773": "https://berries.space/@nb_malfunction",
    "MNO": "https://chitter.xyz/@efi"
}